\relax 
\citation{lunch}
\citation{ipl}
\citation{twitter}
\citation{gc}
\@writefile{toc}{\contentsline {section}{\numberline {1}Introducci\IeC {\'o}n}{1}}
\citation{supervisor}
\@writefile{toc}{\contentsline {section}{\numberline {2}Desarrollo}{2}}
\@writefile{toc}{\contentsline {subsection}{\numberline {2.1}Chat Supervisado}{2}}
\@writefile{toc}{\contentsline {subsection}{\numberline {2.2}C\IeC {\'a}lculo de $\pi $ secuencial}{3}}
\@writefile{toc}{\contentsline {subsection}{\numberline {2.3}C\IeC {\'a}lculo de $\pi $ paralelo utilizando Task Async/Await}{4}}
\@writefile{toc}{\contentsline {subsection}{\numberline {2.4}C\IeC {\'a}lculo de $\pi $ paralelo utilizando spawn}{5}}
\@writefile{toc}{\contentsline {subsection}{\numberline {2.5}Resultados}{6}}
\bibcite{lunch}{1}
\@writefile{toc}{\contentsline {section}{\numberline {3}Conclusiones}{7}}
\@writefile{toc}{\contentsline {section}{\numberline {4}Agradecimientos}{7}}
\bibcite{ipl}{2}
\bibcite{twitter}{3}
\bibcite{gc}{4}
\bibcite{supervisor}{5}
\@writefile{toc}{\contentsline {section}{\numberline {5}Referencias}{8}}
